Tidy data & readable code
…
### Whatever you do, use common formats

**Files** (budgetEPA2016.pdf, budgetEPA2017.pdf, budgetEPA2018.pdf)

**Figures** (commentsPerYear.png, commentsPerAgency.png, commentsPerAgencyPerYear.png)

**Variables** (`d$commentId`, `d$commentText`, `d$commentTotal`, `d$commentUniqueTotal`)

```r
starwars %>%  select(name, ends_with("color"))
```

```
## # A tibble: 87 x 4
##    name               hair_color    skin_color  eye_color
##    <chr>              <chr>         <chr>       <chr>    
##  1 Luke Skywalker     blond         fair        blue     
##  2 C-3PO              <NA>          gold        yellow   
##  3 R2-D2              <NA>          white, blue red      
##  4 Darth Vader        none          white       yellow   
##  5 Leia Organa        brown         light       brown    
##  6 Owen Lars          brown, grey   light       blue     
##  7 Beru Whitesun lars brown         light       blue     
##  8 R5-D4              <NA>          white, red  red      
##  9 Biggs Darklighter  black         light       brown    
## 10 Obi-Wan Kenobi     auburn, white fair        blue-gray
## # … with 77 more rows
```
…
---

### `summarize` by group (`n()`, `mean()`, `max()`, etc.)

```r
starwars %>% 
  group_by(species) %>% 
  summarize(species_N = n()) %>% 
  arrange(-species_N)
```

```
## # A tibble: 38 x 2
##    species  species_N
##    <chr>        <int>
##  1 Human           35
##  2 Droid            5
##  3 <NA>             5
##  4 Gungan           3
##  5 Kaminoan         2
##  6 Mirialan         2
##  7 Twi'lek          2
##  8 Wookiee          2
##  9 Zabrak           2
## 10 Aleena           1
## # … with 28 more rows
```
…
### New variables with `mutate`

```r
starwars %>% 
  group_by(species) %>% 
  mutate(species_height = mean(height, na.rm = TRUE) ) %>% 
  mutate(species_height = round(species_height, 1) ) %>% 
  mutate(eye_colors = paste(unique(eye_color), collapse = ";")) %>%
  select(species, species_height, eye_colors) %>% 
  distinct() 
```

```
## # A tibble: 38 x 3
## # Groups:   species [38]
##    species        species_height eye_colors                            
##    <chr>                   <dbl> <chr>                                 
##  1 Human                    177. blue;yellow;brown;blue-gray;hazel;dark
##  2 Droid                    140  yellow;red;black                      
##  3 Wookiee                  231  blue                                  
##  4 Rodian                   173  black                                 
##  5 Hutt                     175  orange                                
##  6 Yoda's species            66  brown                                 
##  7 Trandoshan               190  red                                   
##  8 Mon Calamari             180  orange                                
##  9 Ewok                      88  brown                                 
## 10 Sullustan                160  black                                 
## # … with 28 more rows
```
…
