Tidy data & readable code
…
summarize by group (n(), mean(), max(), etc.)

starwars %>% 
  group_by(species) %>% 
  summarize(species_N = n()) %>% 
  arrange(-species_N)

## # A tibble: 38 x 2
##     species species_N
##       <chr>     <int>
##  1    Human        35
##  2    Droid         5
##  3     <NA>         5
##  4   Gungan         3
##  5 Kaminoan         2
##  6 Mirialan         2
##  7  Twi'lek         2
##  8  Wookiee         2
##  9   Zabrak         2
## 10   Aleena         1
## # ... with 28 more rows

New variables with mutate

starwars %>% 
  group_by(species) %>% 
  mutate(species_height = mean(height, na.rm = TRUE) ) %>% 
  mutate(species_height = round(species_height, 1) ) %>% 
  mutate(eye_colors = paste(unique(eye_color), collapse = ";")) %>%
  select(species, species_height, eye_colors) %>% 
  distinct() 

## # A tibble: 38 x 3
## # Groups:   species [38]
##           species species_height                             eye_colors
##             <chr>          <dbl>                                  <chr>
##  1          Human          176.6 blue;yellow;brown;blue-gray;hazel;dark
##  2          Droid          140.0                       yellow;red;black
##  3        Wookiee          231.0                                   blue
##  4         Rodian          173.0                                  black
##  5           Hutt          175.0                                 orange
##  6 Yoda's species           66.0                                  brown
##  7     Trandoshan          190.0                                    red
##  8   Mon Calamari          180.0                                 orange
##  9           Ewok           88.0                                  brown
## 10      Sullustan          160.0                                  black
## # ... with 28 more rows
…
