Tidy text analysis example:
…
Sentiment analysis

Sentiment analysis generally involves dictionaries (a list of words) scored as negative or positive. Some sentiment dictionaries mark if a word is negative or positive; some give words a score from -3 to 3; some give emotions like sadness or anger. You can see what the different dictionaries look like with get_sentiments()

# Dictionaries
get_sentiments("afinn") # Scoring system

## # A tibble: 2,476 x 2
##    word       score
##    <chr>      <int>
##  1 abandon       -2
##  2 abandoned     -2
##  3 abandons      -2
##  4 abducted      -2
##  5 abduction     -2
##  6 abductions    -2
##  7 abhor         -3
##  8 abhorred      -3
##  9 abhorrent     -3
## 10 abhors        -3
## #  with 2,466 more rows
…
